 LHCbDataset (
   depth = 0,
   treat_as_inputfiles = False,
   persistency = None,
   files = [1024 Entries of type 'DiracFile'] ,
   XMLCatalogueSlice =    LocalFile (
     namePattern = '',
     compressed = False,
     localDir = ''
   ) 
 )
